mipsCpu.vcd
$date
	Thu Oct  2 14:51:14 2025
$end

$version
	Synopsys VCS version U-2023.03-SP2_Full64
$end

$timescale
	1ns
$end

$comment Csum: 1 ba433b424aec7a43 $end


$scope module tb_mips16 $end
$var reg 1 ! clk $end
$var reg 1 " reset $end
$var wire 16 # pc_out [15:0] $end
$var wire 16 $ alu_result [15:0] $end

$scope module uut $end
$var wire 1 ! clk $end
$var wire 1 " reset $end
$var wire 16 # pc_out [15:0] $end
$var wire 16 $ alu_result [15:0] $end
$var reg 16 # pc_current [15:0] $end
$var wire 16 % pc_next [15:0] $end
$var wire 16 & pc2 [15:0] $end
$var wire 16 ' instr [15:0] $end
$var wire 2 ( reg_dst [1:0] $end
$var wire 2 ) mem_to_reg [1:0] $end
$var wire 2 * alu_op [1:0] $end
$var wire 1 + jump $end
$var wire 1 , branch $end
$var wire 1 - mem_read $end
$var wire 1 . mem_write $end
$var wire 1 / alu_src $end
$var wire 1 0 reg_write $end
$var wire 3 1 reg_write_dest [2:0] $end
$var wire 16 2 reg_write_data [15:0] $end
$var wire 3 3 reg_read_addr_1 [2:0] $end
$var wire 16 4 reg_read_data_1 [15:0] $end
$var wire 3 5 reg_read_addr_2 [2:0] $end
$var wire 16 6 reg_read_data_2 [15:0] $end
$var wire 16 7 sign_ext_im [15:0] $end
$var wire 16 8 read_data2 [15:0] $end
$var wire 16 9 zero_ext_im [15:0] $end
$var wire 16 : imm_ext [15:0] $end
$var wire 1 ; JRControl $end
$var wire 3 < ALU_Control [2:0] $end
$var wire 16 $ ALU_out [15:0] $end
$var wire 1 = zero_flag $end
$var wire 16 > im_shift_1 [15:0] $end
$var wire 16 ? PC_j [15:0] $end
$var wire 16 @ PC_beq [15:0] $end
$var wire 16 A PC_4beq [15:0] $end
$var wire 16 B PC_4beqj [15:0] $end
$var wire 16 C PC_jr [15:0] $end
$var wire 1 D beq_control $end
$var wire 14 E jump_shift_1 [13:0] $end
$var wire 16 F mem_read_data [15:0] $end
$var wire 16 G no_sign_ext [15:0] $end
$var wire 1 H sign_or_zero $end

$scope module instrucion_memory $end
$var wire 16 # pc [15:0] $end
$var wire 16 ' instruction [15:0] $end
$var wire 4 I rom_addr [3:0] $end
$upscope $end


$scope module control_unit $end
$var wire 3 J opcode [2:0] $end
$var wire 1 " reset $end
$var reg 2 ( reg_dst [1:0] $end
$var reg 2 ) mem_to_reg [1:0] $end
$var reg 2 * alu_op [1:0] $end
$var reg 1 + jump $end
$var reg 1 , branch $end
$var reg 1 - mem_read $end
$var reg 1 . mem_write $end
$var reg 1 / alu_src $end
$var reg 1 0 reg_write $end
$var reg 1 H sign_or_zero $end
$upscope $end


$scope module reg_file $end
$var wire 1 ! clk $end
$var wire 1 " rst $end
$var wire 1 0 reg_write_en $end
$var wire 3 1 reg_write_dest [2:0] $end
$var wire 16 2 reg_write_data [15:0] $end
$var wire 3 3 reg_read_addr_1 [2:0] $end
$var wire 16 4 reg_read_data_1 [15:0] $end
$var wire 3 5 reg_read_addr_2 [2:0] $end
$var wire 16 6 reg_read_data_2 [15:0] $end
$upscope $end


$scope module JRControl_unit $end
$var wire 2 * alu_op [1:0] $end
$var wire 4 K funct [3:0] $end
$var wire 1 ; JRControl $end
$upscope $end


$scope module ALU_Control_unit $end
$var reg 3 < ALU_Control [2:0] $end
$var wire 2 * ALUOp [1:0] $end
$var wire 4 K Function [3:0] $end
$var wire 6 L ALUControlIn [5:0] $end
$upscope $end


$scope module alu_unit $end
$var wire 16 4 a [15:0] $end
$var wire 16 8 b [15:0] $end
$var wire 3 < alu_control [2:0] $end
$var reg 16 $ result [15:0] $end
$var wire 1 = zero $end
$upscope $end


$scope module datamem $end
$var wire 1 ! clk $end
$var wire 16 $ mem_access_addr [15:0] $end
$var wire 16 6 mem_write_data [15:0] $end
$var wire 1 . mem_write_en $end
$var wire 1 - mem_read $end
$var wire 16 F mem_read_data [15:0] $end
$var integer 32 M i $end
$var wire 8 N ram_addr [7:0] $end
$upscope $end

$upscope $end

$upscope $end

$enddefinitions $end

#100
$dumpvars
0!
1/
0,
0+
0-
0.
10
1H
0"
xD
x=
x;
b110001 L
b000 <
b0000000000000100 @
b0000000100000010 ?
b0000000000000000 C
b11 *
b00 )
b00 (
b00000000000000000000000100000000 M
b0000000000000010 >
b0000000000000001 :
b1110000010000001 '
b0000000000000000 F
b111 J
b0000000000000010 &
b0000000000000000 #
b0000000000000010 %
b0000000000000001 8
b0000000000000000 4
b0000000000000000 6
b0000000000000001 2
b001 1
b0000000000000001 $
bxxxx I
bxxxxxxxxxxxxxxxx A
bxxxxxxxxxxxxxxxx B
bxxx 3
bxxx 5
bxxxxxxxxxxxxxxxx 7
bxxxxxxxxxxxxxxxx 9
bxxxxxxxxxxxxxx E
bxxxx K
bxxxxxxxxxxxxxxxx G
bxxxxxxxx N
$end
b0000 I
0D
b0000000000000010 A
b0000000000000010 B
0=
b0000000000000001 7
0;
b000 3
b001 5
b0000000000000001 9
b00000100000010 E
b0001 K
b1111111111111110 G
b00000000 N
#110
1!
b0000000000000010 #
b0001 I
b0000000000000100 &
b0000000000000100 A
b0000000000000100 B
b0000000000000110 @
b0000100010100000 '
b0000000000100000 7
b010 3
b0000000000100000 9
b01000101000000 E
b0000 K
b0001000101000000 ?
b110000 L
b000 J
b0000000000000100 %
b0000000000000001 6
b0000000000100000 :
b0000000001000000 >
b1111111111000000 G
b01 (
b00 *
b000000 L
0/
b0000000001000100 @
b0000000000000001 8
b010 1
#120
0!
#130
1!
b0000000000000100 #
b0010 I
b0000000000000110 &
b0000000000000110 A
b0000000000000110 B
b0000000001000110 @
b0000000000000110 %
b0000000000000001 4
b0000000000000001 C
b0000000000000010 $
b00000001 N
b0000000000000010 2
#140
0!
#150
1!
b0000000000000110 #
b0011 I
b0000000000001000 &
b0000000000001000 A
b0000000000001000 B
b0000000001001000 @
b1110100110000000 '
b0000000000000000 7
b011 5
b0000000000000000 9
b01001100000000 E
b0001001100000000 ?
b111 J
b0000000000001000 %
b0000000000000010 4
b0000000000000010 C
b0000000000000000 6
b0000000000000000 :
b0000000000000000 >
b0000000000000000 G
b000 1
b00 (
b11 *
b110000 L
1/
b0000000000000011 $
b0000000000000000 8
b0000000000001000 @
b011 1
b0000000000000011 2
b0000000000000010 $
b0000000000000010 2
#160
0!
#170
1!
b0000000000001000 #
b0100 I
b0000000000001010 &
b0000000000001010 A
b0000000000001010 B
b0000000000001010 @
b1000001000000000 '
b000 3
b100 5
b00010000000000 E
b0000010000000000 ?
b100 J
b0000000000001010 %
b0000000000000000 6
b0000000000000000 4
b0000000000000000 C
b100 1
b01 )
1-
b0000000000000000 $
b00000000 N
1=
b0000000000000000 2
#180
0!
#190
1!
b0000000000001010 #
b0101 I
b0000000000001100 &
b0000000000001100 A
b0000000000001100 B
b0000000000001100 @
b1010000110000000 '
b011 5
b00001100000000 E
b0000001100000000 ?
b101 J
b0000000000001100 %
b0000000000000010 6
b011 1
b00 )
0-
1.
00
#200
0!
#210
1!
b0000000000001100 #
b0110 I
b0000000000001110 &
b0000000000001110 A
b0000000000001110 B
b0000000000001110 @
b1000001000000000 '
b100 5
b00010000000000 E
b0000010000000000 ?
b100 J
b0000000000001110 %
b0000000000000000 6
b100 1
b01 )
1-
0.
10
b0000000000000010 F
b0000000000000010 2
#220
0!
#230
1!
b0000000000001110 #
b0111 I
b0000000000010000 &
b0000000000010000 A
b0000000000010000 B
b0000000000010000 @
b0110000000001100 '
b0000000000001100 7
b000 5
b0000000000001100 9
b00000000011000 E
b1100 K
b0000000000011000 ?
b111100 L
b011 J
b0000000000010000 %
b0000000000000000 6
b0000000000001100 :
b0000000000011000 >
b1111111111101000 G
b000 1
b10 (
b10 )
b00 *
b001100 L
1+
b0000000000011000 B
0-
0/
b0000000000101000 @
b0000000000000000 8
b111 1
b0000000000010000 2
b0000000000011000 %
b0000000000000000 F
#240
0!
#250
1!
b0000000000011000 #
b1100 I
b0000000000011010 &
b0000000000011010 A
b0000000000011010 2
b0000000000110010 @
b1110000100001000 '
b0000000000001000 7
1;
b010 5
b0000000000001000 9
b00001000010000 E
b1000 K
b0000001000010000 ?
b0000001000010000 B
b001000 L
b111 J
b0000000000000010 6
b0000000000001000 :
b0000000000010000 >
b1111111111110000 G
b0000000000000000 %
b00 (
b00 )
b11 *
0;
b111000 L
0+
b0000000000011010 B
1/
b0000000000001000 8
b0000000000101010 @
b010 1
b0000000000000000 2
b0000000000011010 %
b0000000000001000 $
b00000100 N
0=
b0000000000001000 2
#260
0!
#270
1!
b0000000000011010 #
b1101 I
b0000000000011100 &
b0000000000011100 A
b0000000000011100 B
b0000000000101100 @
b0000110010110000 '
b0000000000110000 7
b011 3
b001 5
b0000000000110000 9
b01100101100000 E
b0000 K
b0001100101100000 ?
b110000 L
b000 J
b0000000000011100 %
b0000000000000001 6
b0000000000000010 4
b0000000000000010 C
b0000000000110000 :
b0000000001100000 >
b1111111110100000 G
b001 1
b01 (
b00 *
b000000 L
0/
b0000000000001010 $
b00000101 N
b0000000001111100 @
b0000000000000001 8
b011 1
b0000000000001010 2
b0000000000000011 $
b00000001 N
b0000000000000011 2
#280
0!
#290
1!
b0000000000011100 #
b1110 I
b0000000000011110 &
b0000000000011110 A
b0000000000011110 B
b0000000001111110 @
b0000000000011110 %
b0000000000000011 4
b0000000000000011 C
b0000000000000100 $
b00000010 N
b0000000000000100 2
#300
0!
#310
1!
b0000000000011110 #
b1111 I
b0000000000100000 &
b0000000000100000 A
b0000000000100000 B
b0000000010000000 @
b0001110000001000 '
b0000000000001000 7
1;
b111 3
b000 5
b0000000000001000 9
b11100000010000 E
b1000 K
b0011100000010000 ?
b001000 L
b0000000000000011 %
b0000000000010000 4
b0000000000010000 C
b0000000000000000 6
b0000000000001000 :
b0000000000010000 >
b1111111111110000 G
b000 1
b0000000000010001 $
b00001000 N
b0000000000010000 %
b0000000000000000 8
b0000000000110000 @
b0000000000010001 2
b0000000000010000 $
b0000000000010000 2
#320
0!
#330
1!
b0000000000010000 #
b1000 I
b0000000000010010 &
b0000000000010010 A
b0000000000010010 B
b0000000000100010 @
b1101000110000001 '
b0000000000000001 7
0;
b100 3
b011 5
b0000000000000001 9
b10001100000010 E
b0001 K
b0010001100000010 ?
b000001 L
b110 J
b0000000000000100 6
b0000000000000010 4
b0000000000000010 C
b0000000000000001 :
b0000000000000010 >
b1111111111111110 G
b0000000000010010 %
b001 <
b00 (
b01 *
b010001 L
1,
00
b0000000000000100 8
b1111111111111110 $
b11111111 N
b0000000000010100 @
b011 1
b1111111111111110 2
#340
0!
#350
1!
b0000000000010010 #
b1001 I
b0000000000010100 &
b0000000000010100 A
b0000000000010100 B
b0000000000010110 @
b0000100010100000 '
b0000000000100000 7
b010 3
b001 5
b0000000000100000 9
b01000101000000 E
b0000 K
b0001000101000000 ?
b010000 L
b000 J
b0000000000010100 %
b0000000000000001 6
b0000000000001000 4
b0000000000001000 C
b0000000000100000 :
b0000000001000000 >
b1111111111000000 G
b001 1
b01 (
b00 *
b000000 L
0,
10
b0000000000000001 8
b0000000000000111 $
b00000011 N
b0000000001010100 @
b010 1
b000 <
b0000000000000111 2
b0000000000001001 $
b00000100 N
b0000000000001001 2
#360
0!
#370
1!
b0000000000010100 #
b1010 I
b0000000000010110 &
b0000000000010110 A
b0000000000010110 B
b0000000001010110 @
b0000000000010110 %
b0000000000001001 4
b0000000000001001 C
b0000000000001010 $
b00000101 N
b0000000000001010 2
#380
0!
#390
1!
b0000000000010110 #
b1011 I
b0000000000011000 &
b0000000000011000 A
b0000000000011000 B
b0000000001011000 @
b0100000000000010 '
b0000000000000010 7
b000 3
b000 5
b0000000000000010 9
b00000000000100 E
b0010 K
b0000000000000100 ?
b000010 L
b010 J
b0000000000011000 %
b0000000000000000 4
b0000000000000000 C
b0000000000000000 6
b0000000000000010 :
b0000000000000100 >
b1111111111111100 G
b000 1
b010 <
b00 (
1+
b0000000000000100 B
00
b0000000000000000 $
b00000000 N
1=
b0000000000000000 8
b0000000000011100 @
b0000000000000100 %
b0000000000000000 2
#400
0!
#410
1!
b0000000000000100 #
b0010 I
b0000000000000110 &
b0000000000000110 A
b0000000000001010 @
b0000100010100000 '
b0000000000100000 7
b010 3
b001 5
b0000000000100000 9
b01000101000000 E
b0000 K
b0001000101000000 ?
b0001000101000000 B
b000000 L
b000 J
b0000000000000001 6
b0000000000001010 4
b0000000000001010 C
b0000000000100000 :
b0000000001000000 >
b1111111111000000 G
b0001000101000000 %
b001 1
b000 <
b01 (
0+
b0000000000000110 B
10
b0000000000000001 8
b0000000000001011 $
b00000101 N
0=
b0000000001000110 @
b010 1
b0000000000000110 %
b0000000000001011 2
#420
0!
#430
1!
b0000000000000110 #
b0011 I
b0000000000001000 &
b0000000000001000 A
b0000000000001000 B
b0000000001001000 @
b1110100110000000 '
b0000000000000000 7
b011 5
b0000000000000000 9
b01001100000000 E
b0001001100000000 ?
b111 J
b0000000000001000 %
b0000000000001011 4
b0000000000001011 C
b0000000000000100 6
b0000000000000000 :
b0000000000000000 >
b0000000000000000 G
b000 1
b00 (
b11 *
b110000 L
1/
b0000000000001100 $
b00000110 N
b0000000000000000 8
b0000000000001000 @
b011 1
b0000000000001100 2
b0000000000001011 $
b00000101 N
b0000000000001011 2
#440
0!
#450
1!
b0000000000001000 #
b0100 I
b0000000000001010 &
b0000000000001010 A
b0000000000001010 B
b0000000000001010 @
b1000001000000000 '
b000 3
b100 5
b00010000000000 E
b0000010000000000 ?
b100 J
b0000000000001010 %
b0000000000000010 6
b0000000000000000 4
b0000000000000000 C
b100 1
b01 )
1-
b0000000000000000 $
b00000000 N
1=
b0000000000000010 2
b0000000000000010 F
#460
0!
#470
1!
b0000000000001010 #
b0101 I
b0000000000001100 &
b0000000000001100 A
b0000000000001100 B
b0000000000001100 @
b1010000110000000 '
b011 5
b00001100000000 E
b0000001100000000 ?
b101 J
b0000000000001100 %
b0000000000001011 6
b011 1
b00 )
0-
1.
00
b0000000000000000 2
b0000000000000000 F
#480
0!
#490
1!
bzzzzzzzzzzzzzzzz #
b0110 I
b0000000000001110 &
b0000000000001110 A
b0000000000001110 B
b0000000000001110 @
b1000001000000000 '
b100 5
b00010000000000 E
b0000010000000000 ?
b100 J
b0000000000001110 %
b0000000000000010 6
b100 1
b01 )
1-
0.
10
b0000000000001011 F
b0000000000001011 2
#500
0!
#510
1!
b0000000000001110 #
b0111 I
b0000000000010000 &
b0000000000010000 A
b0000000000010000 B
b0000000000010000 @
b0110000000001100 '
b0000000000001100 7
b000 5
b0000000000001100 9
b00000000011000 E
b1100 K
b0000000000011000 ?
b111100 L
b011 J
b0000000000010000 %
b0000000000000000 6
b0000000000001100 :
b0000000000011000 >
bxxxxxxxxxxxxxxxx G
b000 1
b10 (
b10 )
b00 *
b001100 L
1+
b0000000000011000 B
0-
0/
b0000000000101000 @
b0000000000000000 8
b111 1
b0000000000010000 2
b0000000000011000 %
b0000000000000000 F
#520
0!
#530
1!
b0000000000011000 #
b1100 I
b0000000000011010 &
b0000000000011010 A
b0000000000011010 2
b0000000000110010 @
b1110000100001000 '
b0000000000001000 7
1;
b010 5
b0000000000001000 9
b00001000010000 E
b1000 K
b0000001000010000 ?
b0000001000010000 B
b001000 L
b111 J
b0000000000001011 6
b0000000000001000 :
b0000000000010000 >
b1111111111110000 G
b0000000000000000 %
b00 (
b00 )
b11 *
0;
b111000 L
0+
b0000000000011010 B
1/
b0000000000001000 8
b0000000000101010 @
b010 1
b0000000000000000 2
b0000000000011010 %
b0000000000001000 $
b00000100 N
0=
b0000000000001000 2
#540
0!
#550
1!
b0000000000011010 #
b1101 I
b0000000000011100 &
b0000000000011100 A
b0000000000011100 B
b0000000000101100 @
b0000110010110000 '
b0000000000110000 7
b011 3
b001 5
b0000000000110000 9
b01100101100000 E
b0000 K
b0001100101100000 ?
b110000 L
b000 J
b0000000000011100 %
b0000000000000001 6
b0000000000001011 4
b0000000000001011 C
b0000000000110000 :
b0000000001100000 >
b1111111110100000 G
b001 1
b01 (
b00 *
b000000 L
0/
b0000000000010011 $
b00001001 N
b0000000001111100 @
b0000000000000001 8
b011 1
b0000000000010011 2
b0000000000001100 $
b00000110 N
b0000000000001100 2
#560
0!
#570
1!
b0000000000011100 #
b1110 I
b0000000000011110 &
b0000000000011110 A
b0000000000011110 B
b0000000001111110 @
b0000000000011110 %
b0000000000001100 4
b0000000000001100 C
b0000000000001101 $
b0000000000001101 2
#580
0!
#590
1!
b0000000000011110 #
b1111 I
b0000000000100000 &
b0000000000100000 A
b0000000000100000 B
b0000000010000000 @
b0001110000001000 '
b0000000000001000 7
1;
b111 3
b000 5
b0000000000001000 9
b11100000010000 E
b1000 K
b0011100000010000 ?
b001000 L
b0000000000001100 %
b0000000000010000 4
b0000000000010000 C
b0000000000000000 6
b0000000000001000 :
b0000000000010000 >
b1111111111110000 G
b000 1
b0000000000010001 $
b00001000 N
b0000000000010000 %
b0000000000000000 8
b0000000000110000 @
b0000000000010001 2
b0000000000010000 $
b0000000000010000 2
#600
0!
#610
1!
b0000000000010000 #
b1000 I
b0000000000010010 &
b0000000000010010 A
b0000000000010010 B
b0000000000100010 @
b1101000110000001 '
b0000000000000001 7
0;
b100 3
b011 5
b0000000000000001 9
b10001100000010 E
b0001 K
b0010001100000010 ?
b000001 L
b110 J
b0000000000001101 6
b0000000000001011 4
b0000000000001011 C
b0000000000000001 :
b0000000000000010 >
b1111111111111110 G
b0000000000010010 %
b001 <
b00 (
b01 *
b010001 L
1,
00
b0000000000001101 8
b1111111111111110 $
b11111111 N
b0000000000010100 @
b011 1
b1111111111111110 2
#620
0!
#630
1!
b0000000000010010 #
b1001 I
b0000000000010100 &
b0000000000010100 A
b0000000000010100 B
b0000000000010110 @
b0000100010100000 '
b0000000000100000 7
b010 3
b001 5
b0000000000100000 9
b01000101000000 E
b0000 K
b0001000101000000 ?
b010000 L
b000 J
b0000000000010100 %
b0000000000000001 6
b0000000000001000 4
b0000000000001000 C
b0000000000100000 :
b0000000001000000 >
b1111111111000000 G
b001 1
b01 (
b00 *
b000000 L
0,
10
b0000000000000001 8
b0000000000000111 $
b00000011 N
b0000000001010100 @
b010 1
b000 <
b0000000000000111 2
b0000000000001001 $
b00000100 N
b0000000000001001 2
#640
0!
#650
1!
b0000000000010100 #
b1010 I
b0000000000010110 &
b0000000000010110 A
b0000000000010110 B
b0000000001010110 @
b0000000000010110 %
b0000000000001001 4
b0000000000001001 C
b0000000000001010 $
b00000101 N
b0000000000001010 2
#660
0!
#670
1!
b0000000000010110 #
b1011 I
b0000000000011000 &
b0000000000011000 A
b0000000000011000 B
b0000000001011000 @
b0100000000000010 '
b0000000000000010 7
b000 3
b000 5
b0000000000000010 9
b00000000000100 E
b0010 K
b0000000000000100 ?
b000010 L
b010 J
b0000000000011000 %
b0000000000000000 4
b0000000000000000 C
b0000000000000000 6
b0000000000000010 :
b0000000000000100 >
b1111111111111100 G
b000 1
b010 <
b00 (
1+
b0000000000000100 B
00
b0000000000000000 $
b00000000 N
1=
b0000000000000000 8
b0000000000011100 @
b0000000000000100 %
b0000000000000000 2
#680
0!
#690
1!
b0000000000000100 #
b0010 I
b0000000000000110 &
b0000000000000110 A
b0000000000001010 @
b0000100010100000 '
b0000000000100000 7
b010 3
b001 5
b0000000000100000 9
b01000101000000 E
b0000 K
b0001000101000000 ?
b0001000101000000 B
b000000 L
b000 J
b0000000000000001 6
b0000000000001010 4
b0000000000001010 C
b0000000000100000 :
b0000000001000000 >
b1111111111000000 G
b0001000101000000 %
b001 1
b000 <
b01 (
0+
b0000000000000110 B
10
b0000000000000001 8
b0000000000001011 $
b00000101 N
0=
b0000000001000110 @
b010 1
b0000000000000110 %
b0000000000001011 2